<?xml version="1.0" encoding="utf-8"?>
<!-- Generator: Adobe Illustrator 21.0.2, SVG Export Plug-In . SVG Version: 6.00 Build 0)  -->
<svg version="1.1" id="Layer_1" xmlns="http://www.w3.org/2000/svg" xmlns:xlink="http://www.w3.org/1999/xlink" x="0px" y="0px"
	 width="150px" height="150px" viewBox="0 0 150 150" enable-background="new 0 0 150 150" xml:space="preserve">
<title>404</title>
<g id="Layer_2">
	<g>
		<path fill="#FFFFFF" d="M33.5,55.5H44c0.3,0,0.4,0.3,0.4,0.4v61c0,0.3-0.3,0.4-0.4,0.4H33.5c-0.3,0-0.4-0.3-0.4-0.4V56
			C33.1,55.7,33.3,55.5,33.5,55.5z"/>
	</g>
	<g>
		<path fill="#ADC4D2" d="M44.3,77.6c0,0-0.5-3.5-5.6-3.5s-5.6,3.5-5.6,3.5v-9.2h11.3L44.3,77.6L44.3,77.6z"/>
	</g>
	<g>
		<path fill="#ADC4D2" d="M44.3,106.5c0,0-0.5-3.5-5.6-3.5s-5.6,3.5-5.6,3.5v-9.2h11.3L44.3,106.5L44.3,106.5z"/>
	</g>
	<g>
		<path d="M44.6,118.1H32.9c-0.8,0-1.4-0.6-1.4-1.4v-61c0-0.8,0.6-1.4,1.4-1.4h11.6c0.8,0,1.4,0.6,1.4,1.4v61
			C45.9,117.6,45.2,118.1,44.6,118.1z M33.5,116.2H44V56.4H33.5V116.2z M44.6,56.3L44.6,56.3L44.6,56.3z"/>
	</g>
	<g>
		<path fill="#FFFFFF" d="M106.5,55.5H117c0.3,0,0.4,0.3,0.4,0.4v61c0,0.3-0.3,0.4-0.4,0.4h-10.5c-0.3,0-0.4-0.3-0.4-0.4V56
			C106.1,55.7,106.3,55.5,106.5,55.5z"/>
	</g>
	<g>
		<path fill="#ADC4D2" d="M117.3,77.6c0,0-0.5-3.5-5.6-3.5s-5.6,3.5-5.6,3.5v-9.2h11.1L117.3,77.6L117.3,77.6z"/>
	</g>
	<g>
		<path fill="#ADC4D2" d="M117.3,106.5c0,0-0.5-3.5-5.6-3.5s-5.6,3.5-5.6,3.5v-9.2h11.1L117.3,106.5L117.3,106.5z"/>
	</g>
	<g>
		<path d="M117.5,118.1h-11.7c-0.8,0-1.4-0.6-1.4-1.4v-61c0-0.8,0.6-1.4,1.4-1.4h11.6c0.8,0,1.4,0.6,1.4,1.4v61
			C118.9,117.6,118.3,118.1,117.5,118.1z M106.5,116.2H117V56.4h-10.5V116.2z M117.5,56.3L117.5,56.3L117.5,56.3z"/>
	</g>
	<g>
		<path fill="#FFFFFF" d="M27.2,117.2h23.3c0.3,0,0.4,0.3,0.4,0.4v5.6c0,0.3-0.3,0.4-0.4,0.4H27.2c-0.3,0-0.4-0.3-0.4-0.4v-5.6
			C26.9,117.3,27,117.2,27.2,117.2z"/>
		<path d="M50.4,124.6H27.2c-0.8,0-1.4-0.6-1.4-1.4v-5.6c0-0.8,0.6-1.4,1.4-1.4h23.3c0.8,0,1.4,0.6,1.4,1.4v5.6
			C51.8,123.9,51.3,124.6,50.4,124.6z M27.8,122.5h22v-4.4h-22V122.5z M50.4,118.1L50.4,118.1L50.4,118.1z"/>
	</g>
	<g>
		<path fill="#FFFFFF" d="M101,117.2h22.1c0.5,0,0.8,0.4,0.8,0.8v5.6l0,0h-24l0,0v-5.3C99.9,117.6,100.4,117.2,101,117.2L101,117.2z
			"/>
		<path d="M125,124.6H98.9v-6.3c0-1.2,0.9-2.1,2.1-2.1h22.1c0.9,0,1.8,0.8,1.8,1.8L125,124.6L125,124.6z M100.9,122.5h22v-4.4H101
			c-0.1,0-0.1,0.1-0.1,0.1V122.5z M123.2,118.1L123.2,118.1L123.2,118.1z"/>
	</g>
	<g>
		<path fill="#F9DA30" d="M104.9,45.6h14c1,0,2.1,0.9,2.1,2.1v8l0,0h-18l0,0v-8C102.9,46.4,103.9,45.6,104.9,45.6z"/>
	</g>
	<g>
		<path fill="#E1C42B" d="M120.6,52.3c0,0,0-2.5-8.7-2.5s-8.7,2.5-8.7,2.5v-6.4h17.3C120.6,45.9,120.6,52.3,120.6,52.3z"/>
	</g>
	<g>
		<path d="M121.7,56.3h-20.1v-9.1c0-1.7,1.3-3,3-3h14c1.7,0,3,1.3,3,3L121.7,56.3L121.7,56.3z M103.7,54.3h16v-7
			c0-0.6-0.5-0.9-0.9-0.9h-14.1c-0.6,0-0.9,0.5-0.9,0.9L103.7,54.3L103.7,54.3z"/>
	</g>
	<g>
		<path fill="#F9DA30" d="M31.9,45.6h14c1,0,2.1,0.9,2.1,2.1v8l0,0H29.8l0,0v-8C29.8,46.4,30.7,45.6,31.9,45.6z"/>
	</g>
	<g>
		<path fill="#E1C42B" d="M47.5,52.3c0,0,0-2.5-8.7-2.5s-8.6,2.5-8.6,2.5v-6.4h17.3V52.3z"/>
	</g>
	<g>
		<path d="M48.7,56.3h-20v-9.1c0-1.7,1.3-3,3-3h14c1.7,0,3,1.3,3,3V56.3L48.7,56.3z M30.7,54.3h16v-7c0-0.6-0.5-0.9-0.9-0.9H31.6
			c-0.6,0-0.9,0.5-0.9,0.9V54.3z"/>
	</g>
	<g>
		<path fill="#FFFFFF" d="M127.3,86v11.3c0,0.3-0.3,0.4-0.4,0.4H23.1c-0.3,0-0.4-0.3-0.4-0.4V86c0-0.3,0.3-0.4,0.4-0.4h103.8
			C127.2,85.6,127.3,85.9,127.3,86z"/>
	</g>
	<g>
		<polygon fill="#F7AD41" points="45,86 33.7,86 24.5,96.9 35.6,96.9 		"/>
	</g>
	<g>
		<polygon fill="#F7AD41" points="71.8,86 60.6,86 51.3,96.9 62.6,96.9 		"/>
	</g>
	<g>
		<polygon fill="#F7AD41" points="99.2,86 88,86 78.7,96.9 89.9,96.9 		"/>
	</g>
	<g>
		<polygon fill="#F7AD41" points="126,86 114.9,86 105.5,96.9 116.8,96.9 		"/>
	</g>
	<g>
		<path d="M127.2,98.4h-104c-0.8,0-1.4-0.6-1.4-1.4V85.7c0-0.8,0.6-1.4,1.4-1.4H127c0.8,0,1.4,0.6,1.4,1.4V97
			C128.6,97.8,128,98.4,127.2,98.4z M23.8,96.4h102.7v-10H23.8V96.4z"/>
	</g>
	<g>
		<path fill="#FFFFFF" d="M127.3,56.3v11.3c0,0.3-0.3,0.4-0.4,0.4H23.1c-0.3,0-0.4-0.3-0.4-0.4V56.3c0-0.3,0.3-0.4,0.4-0.4h103.8
			C127.2,56,127.3,56.1,127.3,56.3z"/>
	</g>
	<g>
		<polygon fill="#F7AD41" points="44.9,56 33.6,56 24.1,68 35.5,68 		"/>
	</g>
	<g>
		<polygon fill="#F7AD41" points="71.7,56 60.4,56 51.1,68 62.3,68 		"/>
	</g>
	<g>
		<polygon fill="#F7AD41" points="99.1,56 87.7,56 78.4,68 89.6,68 		"/>
	</g>
	<g>
		<polygon fill="#F7AD41" points="126.1,55.5 114.9,55.5 105.5,67.6 116.8,67.6 		"/>
	</g>
	<g>
		<path d="M127.2,69.2h-104c-0.8,0-1.4-0.6-1.4-1.4v-12c0-0.8,0.6-1.4,1.4-1.4H127c0.8,0,1.4,0.6,1.4,1.4v12.1
			C128.6,68.5,128,69.2,127.2,69.2z M23.8,67.1h102.7V56.3H23.8V67.1z"/>
	</g>
	<g>
		<path fill="#FFB142" d="M77.2,42.9l17,17.1c0.9,0.9,0.9,2.5,0,3.5l-17,16.9c-0.9,0.9-2.5,0.9-3.5,0L56.8,63.3
			c-0.9-0.9-0.9-2.5,0-3.5l17.1-17C74.8,42,76.2,42,77.2,42.9z"/>
	</g>
	<g>
		<path fill="#FF9B2F" d="M75.5,52.3c-10.8,0-20.5,9.3-20.5,9.3l20.5-20.5L96,61.6C96,61.7,86.3,52.3,75.5,52.3z"/>
	</g>
	<g>
		<path d="M75.5,82.2c-0.8,0-1.8-0.4-2.3-0.9L56.1,64c-0.6-0.6-0.9-1.6-0.9-2.3c0-0.9,0.4-1.8,0.9-2.3l17.1-17.2
			c1.3-1.3,3.5-1.3,4.9,0l17.1,17.1c1.3,1.3,1.3,3.5,0,4.9L78,81.2C77.3,81.8,76.3,82.2,75.5,82.2z M75.5,43.1
			c-0.4,0-0.7,0.1-0.9,0.4L57.5,60.7c-0.3,0.3-0.4,0.6-0.4,0.9s0.1,0.7,0.4,0.9l17.1,17.2c0.6,0.6,1.4,0.6,2.1,0l17.1-17.1
			c0.6-0.6,0.6-1.4,0-2.1L76.4,43.7C76.2,43.3,75.8,43.1,75.5,43.1z"/>
	</g>
	<g>
		<path d="M38.8,46c-5.1,0-9.3-4.1-9.3-9.3c0-5.1,4.1-9.3,9.3-9.3s9.3,4.1,9.3,9.3C48,41.9,43.8,46,38.8,46z M38.8,29.8
			c-3.8,0-6.9,3.1-6.9,6.9s3.1,6.9,6.9,6.9s6.9-3.1,6.9-6.9S42.5,29.8,38.8,29.8z"/>
	</g>
	<g>
		<path fill="#EE9334" d="M38.8,43.7c-3.8,0-7-3.1-7-7c0-3.8,3.1-7,7-7s7,3.1,7,7C45.6,40.4,42.5,43.7,38.8,43.7z M38.8,32.5
			c-2.2,0-4.1,1.9-4.1,4.1s1.9,4.1,4.1,4.1c2.2,0,4.1-1.9,4.1-4.1C42.8,34.4,41,32.5,38.8,32.5z"/>
	</g>
	<g>
		<path d="M38.8,40.8c-2.2,0-4.1-1.9-4.1-4.1c0-2.2,1.9-4.1,4.1-4.1c2.2,0,4.1,1.9,4.1,4.1S41,40.8,38.8,40.8z M38.8,34.1
			c-1.4,0-2.6,1.2-2.6,2.6s1.2,2.6,2.6,2.6s2.6-1.2,2.6-2.6S40.2,34.1,38.8,34.1z"/>
	</g>
	<g>
		<path d="M111.7,46c-5.1,0-9.3-4.1-9.3-9.3c0-5.1,4.1-9.3,9.3-9.3c5.1,0,9.3,4.1,9.3,9.3S116.8,46,111.7,46z M111.7,29.8
			c-3.8,0-6.9,3.1-6.9,6.9s3.1,6.9,6.9,6.9s6.9-3.1,6.9-6.9S115.5,29.8,111.7,29.8z"/>
	</g>
	<g>
		<path fill="#EE9334" d="M111.7,43.7c-3.8,0-7-3.1-7-7c0-3.8,3.1-7,7-7s7,3.1,7,7C118.6,40.4,115.5,43.7,111.7,43.7z M111.7,32.5
			c-2.2,0-4.1,1.9-4.1,4.1s1.9,4.1,4.1,4.1s4.1-1.9,4.1-4.1C115.8,34.3,114,32.5,111.7,32.5z"/>
	</g>
	<g>
		<path d="M111.7,40.8c-2.2,0-4.1-1.9-4.1-4.1c0-2.2,1.9-4.1,4.1-4.1s4.1,1.9,4.1,4.1S114,40.8,111.7,40.8z M111.7,34.1
			c-1.4,0-2.6,1.2-2.6,2.6s1.2,2.6,2.6,2.6s2.6-1.2,2.6-2.6S113.1,34.1,111.7,34.1z"/>
	</g>
	<g>
		<path d="M-1.6,122.6h153.4c0.7,0,1,0.6,1,1l0,0c0,0.7-0.6,1-1,1H-1.6c-0.7,0-1-0.6-1-1l0,0C-2.7,123.1-2.2,122.6-1.6,122.6z"/>
	</g>
	<g>
		<path fill="#FFFEFD" d="M66,63.2l3.2-7.6h1.9v7.6h0.8v1.7h-0.8V67h-1.7v-2.1h-3.5L66,63.2L66,63.2z M69.6,63.2v-4.3l-1.8,4.3H69.6
			z"/>
	</g>
	<g>
		<path fill="#FFFEFD" d="M72.8,58.3c0-1.8,0.9-2.7,2.6-2.7s2.6,0.9,2.6,2.7V64c0,1.8-0.9,2.7-2.6,2.7s-2.6-0.9-2.6-2.7V58.3z
			 M74.4,64.4c0,0.8,0.4,1.2,0.9,1.2s0.9-0.4,0.9-1.2v-6.6c0-0.8-0.4-1.2-0.9-1.2s-0.9,0.4-0.9,1.2V64.4z"/>
	</g>
	<g>
		<path fill="#FFFEFD" d="M78.8,63.2l3.2-7.6h1.9v7.6h0.8v1.7h-0.8V67h-1.7v-2.1h-3.5L78.8,63.2L78.8,63.2z M82.4,63.2v-4.3
			l-1.8,4.3H82.4z"/>
	</g>
</g>
</svg>
